waveform_data.txt

#Digilent WaveForms Oscilloscope Acquisition
#Device Name: Discovery3
#Serial Number: SN:210415BA04B6
#Date Time: 2024-02-19 16:07:20.540.743.300
#Sample rate: 5e+07Hz
#Samples: 16384
#Trigger: Source: Channel 1 Type: Edge Condition: Rising Level: 1.5 V Hyst.: Auto HoldOff: 0 s
#Channel 1: Range: 5 V/div Offset: 0 V Attenuation: 1 X Sample Mode: Average
#Channel 2: Range: 5 V/div Offset: 0 V Attenuation: 1 X Sample Mode: Average

Time (s)	Channel 1 (V)	Channel 2 (V)
-0.0001738497517378352	7.442619065491668	-7.966745955091743
-0.0001738297517378351	7.439000869214333	-7.957694338166071
-0.0001738097517378352	7.448046359907682	-7.939591104314777
-0.0001737897517378352	7.431764476659638	-7.943211751085039
-0.0001737697517378351	7.44080996735299	-7.959504661551211
-0.0001737497517378352	7.435382672936981	-7.950453044625564
-0.0001737297517378352	7.453473654323679	-7.945022074470176
-0.0001737097517378351	7.435382672936981	-7.946832397855301
-0.0001736897517378352	7.426337182243624	-7.948642721240432
-0.0001736697517378351	7.440809967353004	-7.952263368010682
-0.0001736497517378352	7.449855458046354	-7.937780780929646
-0.0001736297517378352	7.440809967352996	-7.950453044625564
-0.0001736097517378351	7.442619065491668	-7.973987248632267
-0.0001735897517378352	7.442619065491668	-7.970366601862005
-0.0001735697517378352	7.442619065491668	-7.9576943381661
-0.0001735497517378351	7.448046359907682	-7.952263368010695
-0.0001735297517378352	7.453473654323696	-7.96131498493635
-0.0001735097517378351	7.455282752462367	-7.948642721240446
-0.0001734897517378352	7.453473654323696	-7.963125308321481
-0.0001734697517378352	7.453473654323696	-7.959504661551223
-0.0001734497517378351	7.442619065491668	-7.955884014780957
-0.0001734297517378352	7.464328243155726	-7.966745955091743
-0.0001734097517378351	7.458900948739687	-7.961314984936344
-0.0001733897517378352	7.431764476659638	-7.954073691395826
-0.0001733697517378352	7.435382672936981	-7.959504661551219
-0.0001733497517378351	7.435382672936981	-7.96131498493635
-0.0001733297517378352	7.435382672936981	-7.946832397855301
-0.0001733097517378352	7.46071004687836	-7.968556278476854
-0.0001732897517378351	7.462519145017054	-7.96131498493635
-0.0001732697517378352	7.442619065491668	-7.957694338166088
-0.0001732497517378351	7.437191771075653	-7.957694338166093
-0.0001732297517378352	7.437191771075653	-7.963125308321481
-0.0001732097517378352	7.437191771075653	-7.948642721240446
-0.0001731897517378351	7.431764476659638	-7.954073691395826
-0.0001731697517378352	7.43357357479831	-7.959504661551219
-0.0001731497517378352	7.44261906549166	-7.95769433816609
-0.0001731297517378352	7.439000869214325	-7.963125308321481
-0.0001731097517378352	7.446237261769011	-7.959504661551219
-0.0001730897517378351	7.444428163630337	-7.964935631706597
-0.0001730697517378352	7.442619065491668	-7.948642721240432
-0.0001730497517378352	7.444428163630337	-7.959504661551209
-0.0001730297517378351	7.444428163630339	-7.955884014780957
-0.0001730097517378352	7.43357357479831	-7.96131498493635
-0.0001729897517378351	7.448046359907674	-7.964935631706604
-0.0001729697517378352	7.439000869214325	-7.955884014780957
-0.0001729497517378352	7.451664556185025	-7.955884014780957
-0.0001729297517378351	7.435382672936981	-7.972176925247136
-0.0001729097517378352	7.440809967352996	-7.96131498493635
-0.0001728897517378352	7.444428163630335	-7.948642721240444
-0.0001728697517378351	7.439000869214325	-7.954073691395826
-0.0001728497517378352	7.451664556185025	-7.950453044625564
-0.0001728297517378351	7.455282752462363	-7.961314984936356
-0.0001728097517378352	7.449855458046354	-7.968556278476874
-0.0001727897517378352	7.429955378520985	-7.946832397855321
-0.0001727697517378351	7.440809967352996	-7.955884014780957
-0.0001727497517378352	7.439000869214325	-7.959504661551219
-0.0001727297517378351	7.453473654323698	-7.955884014780959
-0.0001727097517378352	7.455282752462368	-7.957694338166088
-0.0001726897517378352	7.449855458046354	-7.957694338166088
-0.0001726697517378351	7.460710046878383	-7.966745955091743
-0.0001726497517378352	7.458900948739712	-7.973987248632267
-0.0001726297517378352	7.451664556185031	-7.952263368010715
-0.0001726097517378351	7.449855458046354	-7.948642721240432
-0.0001725897517378352	7.464328243155726	-7.950453044625564
-0.0001725697517378351	7.453473654323695	-7.95769433816609
-0.0001725497517378352	7.451664556185025	-7.959504661551219
-0.0001725297517378352	7.469755537571723	-7.950453044625572
-0.0001725097517378351	7.446237261769011	-7.959504661551219
-0.0001724897517378352	7.45709185060104	-7.96131498493635
-0.0001724697517378352	7.4534736543237	-7.966745955091738
-0.0001724497517378351	7.458900948739712	-7.954073691395826
-0.0001724297517378352	7.431764476659638	-7.950453044625564
-0.0001724097517378351	7.453473654323683	-7.954073691395834
-0.0001723897517378352	7.439000869214325	-7.963125308321481
-0.0001723697517378352	7.466137341294372	-7.959504661551223
-0.0001723497517378351	7.446237261769011	-7.954073691395826
-0.0001723297517378352	7.451664556185025	-7.968556278476874
-0.0001723097517378351	7.460710046878379	-7.955884014780959
-0.0001722897517378352	7.45709185060104	-7.957694338166088
-0.0001722697517378352	7.453473654323696	-7.966745955091743
-0.0001722497517378351	7.455282752462368	-7.970366601862005
-0.0001722297517378352	7.446237261769011	-7.964935631706612
-0.0001722097517378352	7.442619065491671	-7.961314984936354
-0.0001721897517378351	7.449855458046354	-7.955884014780957
-0.0001721697517378352	7.458900948739712	-7.963125308321481
-0.0001721497517378351	7.455282752462367	-7.966745955091743
-0.0001721297517378352	7.453473654323696	-7.966745955091743
-0.0001721097517378352	7.437191771075669	-7.955884014780967
-0.0001720897517378351	7.444428163630339	-7.970366601862005
-0.0001720697517378352	7.448046359907682	-7.952263368010695
-0.0001720497517378351	7.455282752462355	-7.954073691395834
-0.0001720297517378352	7.440809967352996	-7.963125308321481
-0.0001720097517378352	7.45709185060104	-7.964935631706612
-0.0001719897517378351	7.462519145017046	-7.968556278476861
-0.0001719697517378352	7.453473654323696	-7.954073691395826
-0.0001719497517378352	7.437191771075669	-7.966745955091731
-0.0001719297517378351	7.455282752462368	-7.966745955091743
-0.0001719097517378352	7.439000869214325	-7.952263368010695
-0.0001718897517378351	7.458900948739705	-7.964935631706604
-0.0001718697517378352	7.451664556185025	-7.955884014780957
-0.0001718497517378352	7.451664556185025	-7.959504661551219
-0.0001718297517378351	7.460710046878383	-7.964935631706612
-0.0001718097517378352	7.449855458046354	-7.964935631706612
-0.0001717897517378352	7.453473654323693	-7.961314984936354
-0.0001717697517378351	7.460710046878383	-7.972176925247136
-0.0001717497517378352	7.442619065491668	-7.968556278476874
-0.0001717297517378351	7.455282752462367	-7.957694338166105
-0.0001717097517378352	7.453473654323696	-7.975797572017398
-0.0001716897517378352	7.458900948739706	-7.97217692524714
-0.0001716697517378351	7.440809967352996	-7.96131498493635
-0.0001716497517378352	7.462519145017054	-7.975797572017398
-0.0001716297517378351	7.455282752462368	-7.959504661551229
-0.0001716097517378352	7.455282752462368	-7.970366601862005
-0.0001715897517378352	7.464328243155726	-7.966745955091743
-0.0001715697517378351	7.464328243155726	-7.973987248632267
-0.0001715497517378352	7.440809967352996	-7.973987248632267
-0.0001715297517378352	7.444428163630335	-7.952263368010715
-0.0001715097517378351	7.460710046878383	-7.96131498493635
-0.0001714897517378352	7.460710046878383	-7.957694338166088
-0.0001714697517378351	7.460710046878388	-7.964935631706616
-0.0001714497517378352	7.466137341294397	-7.968556278476874
-0.0001714297517378352	7.455282752462378	-7.954073691395839
-0.0001714097517378351	7.448046359907682	-7.96131498493635
-0.0001713897517378352	7.467946439433069	-7.943211751085039
-0.0001713697517378351	7.449855458046362	-7.935970457544548
-0.0001713497517378352	7.458900948739712	-7.972176925247136
-0.0001713297517378352	7.444428163630339	-7.959504661551219
-0.0001713097517378351	7.451664556185035	-7.954073691395826
-0.0001712897517378352	7.462519145017054	-7.954073691395826
-0.0001712697517378352	7.457091850601045	-7.964935631706602
-0.0001712497517378351	7.45709185060104	-7.968556278476874
-0.0001712297517378352	7.45709185060104	-7.954073691395826
-0.0001712097517378351	7.457091850601038	-7.96131498493635
-0.0001711897517378352	7.455282752462368	-7.96131498493635
-0.0001711697517378352	7.46975553757174	-7.966745955091743
-0.0001711497517378351	7.455282752462368	-7.968556278476874
-0.0001711297517378352	7.446237261769011	-7.955884014780957
-0.0001711097517378352	7.444428163630341	-7.955884014780957
-0.0001710897517378351	7.453473654323696	-7.959504661551219
-0.0001710697517378352	7.464328243155726	-7.959504661551219
-0.0001710497517378351	7.442619065491676	-7.97217692524714
-0.0001710297517378352	7.451664556185025	-7.975797572017398
-0.0001710097517378352	7.458900948739705	-7.966745955091751
-0.0001709897517378351	7.462519145017054	-7.954073691395826
-0.0001709697517378352	7.453473654323696	-7.968556278476874
-0.0001709497517378351	7.451664556185017	-7.968556278476868
-0.0001709297517378352	7.442619065491668	-7.96131498493635
-0.0001709097517378352	7.466137341294397	-7.946832397855301
-0.0001708897517378351	7.458900948739712	-7.964935631706612
-0.0001708697517378352	7.200199914909685	-7.964935631706612
-0.0001708497517378352	5.515929547808043	-7.977607895402517
-0.0001708297517378351	2.941582896476955	-7.970366601862005
-0.0001708097517378352	1.262739823789795	-7.963125308321481
-0.0001707897517378351	0.7236285784655345	-7.964935631706612
-0.0001707697517378352	0.5571915497079071	-7.964935631706612
-0.0001707497517378352	0.4178909930303276	-7.97217692524713
-0.0001707297517378351	0.3201996935419395	-7.94502207447017
-0.0001707097517378352	0.2858268289071809	-7.957694338166088
-0.0001706897517378352	0.29849051587787	-7.961314984936346
-0.0001706697517378351	0.3165814972645965	-7.959504661551219
-0.0001706497517378352	0.311154202848582	-7.952263368010695
-0.0001706297517378351	0.3002996140165677	-7.955884014780965
-0.0001706097517378352	0.3165814972645965	-7.964935631706612
-0.0001705897517378352	0.3129633009872568	-7.970366601862
-0.0001705697517378351	0.314772399125925	-7.957694338166088
-0.0001705497517378352	0.307536006571239	-7.959504661551219
-0.0001705297517378351	0.3093451047099171	-7.961314984936355
-0.0001705097517378352	0.3165814972645965	-7.966745955091743
-0.0001704897517378352	0.307536006571239	-7.966745955091743
-0.0001704697517378351	0.3238178898192826	-7.963125308321481
-0.0001704497517378352	0.3400997730673261	-7.964935631706612
-0.0001704297517378352	0.3129633009872782	-7.950453044625577
-0.0001704097517378351	0.3165814972645965	-7.957694338166088
-0.0001703897517378352	0.3021087121552244	-7.966745955091743
-0.0001703697517378351	0.318390595403273	-7.961314984936352
-0.0001703497517378352	0.3238178898192826	-7.963125308321481
-0.0001703297517378352	0.3238178898192826	-7.96493563170661
-0.0001703097517378351	0.322008791680611	-7.959504661551219
-0.0001702897517378352	0.3165814972645965	-7.963125308321481
-0.0001702697517378351	0.3057269084325707	-7.972176925247123
-0.0001702497517378352	0.3093451047099105	-7.957694338166088
-0.0001702297517378352	0.3292451842352971	-7.959504661551219
-0.0001702097517378351	0.3147723991259349	-7.961314984936344
-0.0001701897517378352	0.325626987957954	-7.954073691395826
-0.0001701697517378352	0.3201996935419444	-7.948642721240438
-0.0001701497517378351	0.322008791680611	-7.963125308321481
-0.0001701297517378352	0.307536006571239	-7.950453044625564
-0.0001701097517378351	0.3129633009872584	-7.959504661551227
-0.0001700897517378352	0.318390595403268	-7.968556278476874
-0.0001700697517378352	0.3238178898192776	-7.957694338166098
-0.0001700497517378351	0.3165814972645965	-7.972176925247136
-0.0001700297517378352	0.311154202848582	-7.963125308321481
-0.0001700097517378352	0.3292451842352807	-7.970366601861999
-0.0001699897517378351	0.322008791680611	-7.964935631706612
-0.0001699697517378352	0.3165814972645965	-7.972176925247136
-0.0001699497517378351	0.314772399125925	-7.981228542172762
-0.0001699297517378352	0.314772399125925	-7.950453044625564
-0.0001699097517378352	0.3256269879579441	-7.950453044625564
-0.0001698897517378351	0.3238178898192826	-7.968556278476874
-0.0001698697517378352	0.3093451047099105	-7.964935631706612
-0.0001698497517378351	0.312963300987265	-7.968556278476864
-0.0001698297517378352	0.325626987957954	-7.957694338166088
-0.0001698097517378352	0.322008791680611	-7.957694338166088
-0.0001697897517378351	0.3238178898192826	-7.94502207447017
-0.0001697697517378352	0.3274360860966256	-7.96131498493635
-0.0001697497517378352	0.3256269879579557	-7.966745955091738
-0.0001697297517378351	0.3165814972645965	-7.970366601862005
-0.0001697097517378352	0.325626987957954	-7.977607895402529
-0.0001696897517378351	0.3111542028485869	-7.95045304462557
-0.0001696697517378352	0.3165814972645965	-7.957694338166088
-0.0001696497517378352	0.3093451047099171	-7.957694338166088
-0.0001696297517378351	0.314772399125925	-7.963125308321481
-0.0001696097517378352	0.322008791680611	-7.964935631706612
-0.0001695897517378351	0.3075360065712422	-7.950453044625572
-0.0001695697517378352	0.311154202848582	-7.959504661551219
-0.0001695497517378352	0.303917810293896	-7.970366601862005
-0.0001695297517378351	0.3220087916805979	-7.963125308321485
-0.0001695097517378352	0.307536006571239	-7.966745955091743
-0.0001694897517378352	0.3147723991259184	-7.957694338166096
-0.0001694697517378351	0.3093451047099105	-7.970366601862005
-0.0001694497517378352	0.3129633009872535	-7.954073691395826
-0.0001694297517378351	0.3328633805126253	-7.959504661551224
-0.0001694097517378352	0.3165814972645965	-7.964935631706612
-0.0001693897517378352	0.322008791680611	-7.966745955091743
-0.0001693697517378351	0.3057269084325674	-7.963125308321481
-0.0001693497517378352	0.318390595403268	-7.957694338166088
-0.0001693297517378352	0.3111542028485886	-7.959504661551217
-0.0001693097517378351	0.3238178898192826	-7.966745955091743
-0.0001692897517378352	0.307536006571239	-7.973987248632267
-0.0001692697517378351	0.3147723991259233	-7.972176925247128
-0.0001692497517378352	0.3129633009872535	-7.963125308321481
-0.0001692297517378352	0.3093451047099138	-7.968556278476869
-0.0001692097517378351	0.3093451047099105	-7.977607895402529
-0.0001691897517378352	0.314772399125925	-7.959504661551219
-0.0001691697517378351	0.3021087121552393	-7.973987248632254
-0.0001691497517378352	0.318390595403268	-7.959504661551219
-0.0001691297517378352	0.303917810293896	-7.968556278476874
-0.0001691097517378351	0.3274360860966256	-7.970366601862005
-0.0001690897517378352	0.314772399125925	-7.957694338166088
-0.0001690697517378352	0.3093451047099154	-7.972176925247123
-0.0001690497517378351	0.3165814972645965	-7.966745955091743
-0.0001690297517378352	0.314772399125925	-7.973987248632267
-0.0001690097517378351	0.2984905158778765	-7.968556278476866
-0.0001689897517378352	0.2930632214618669	-7.959504661551219
-0.0001689697517378352	0.3021087121552162	-7.970366601861995
-0.0001689497517378351	0.3093451047099105	-7.97941821878766
-0.0001689297517378352	0.3238178898192826	-7.977607895402529
-0.0001689097517378352	0.3093451047099237	-7.966745955091753
-0.0001688897517378352	0.2966814177392099	-7.97941821878766
-0.0001688697517378352	0.3021087121552244	-7.964935631706612
-0.0001688497517378351	0.3057269084325806	-7.97217692524714
-0.0001688297517378352	0.3201996935419395	-7.975797572017398
-0.0001688097517378352	0.3021087121552409	-7.975797572017398
-0.0001687897517378351	0.307536006571239	-7.973987248632267
-0.0001687697517378352	0.303917810293896	-7.986659512328185
-0.0001687497517378351	0.3129633009872403	-7.968556278476874
-0.0001687297517378352	0.2984905158778814	-7.968556278476874
-0.0001687097517378352	0.311154202848582	-7.973987248632267
-0.0001686897517378351	0.2966814177392099	-7.983038865557922
-0.0001686697517378352	0.3057269084325674	-7.96131498493635
-0.0001686497517378352	0.3039178102938976	-7.972176925247126
-0.0001686297517378351	0.3057269084325674	-7.970366601862005
-0.0001686097517378352	0.2912541233231954	-7.972176925247136
-0.0001685897517378351	0.3057269084325674	-7.975797572017398
-0.0001685697517378352	0.3057269084325674	-7.975797572017398
-0.0001685497517378352	0.3002996140165579	-7.959504661551234
-0.0001685297517378351	0.2912541233231954	-7.975797572017398
-0.0001685097517378352	0.2948723196005384	-7.986659512328185
-0.0001684897517378351	0.3039178102938976	-7.983038865557917
-0.0001684697517378352	0.3057269084325674	-7.977607895402529
-0.0001684497517378352	0.303917810293896	-7.968556278476874
-0.0001684297517378351	0.2966814177392099	-7.966745955091743
-0.0001684097517378352	0.3021087121552244	-7.957694338166088
-0.0001683897517378352	0.3039178102938943	-7.977607895402511
-0.0001683697517378351	0.2966814177392099	-7.973987248632267
-0.0001683497517378352	0.3093451047099105	-7.959504661551219
-0.0001683297517378351	0.3039178102938828	-7.96131498493636
-0.0001683097517378352	0.2894450251845239	-7.972176925247136
-0.0001682897517378352	0.302108712155213	-7.986659512328171
-0.0001682697517378351	0.3093451047099105	-7.984849188943054
-0.0001682497517378352	0.311154202848582	-7.973987248632267
-0.0001682297517378352	0.2948723196005532	-7.981228542172785
-0.0001682097517378351	0.3002996140165529	-7.973987248632267
-0.0001681897517378352	0.3002996140165529	-7.970366601862005
-0.0001681697517378351	0.2966814177392149	-7.973987248632272
-0.0001681497517378352	0.3021087121552244	-7.97941821878766
-0.0001681297517378352	0.3057269084325642	-7.97941821878766
-0.0001681097517378351	0.3021087121552244	-7.977607895402529
-0.0001680897517378352	0.2912541233231954	-7.957694338166088
-0.0001680697517378351	0.302108712155208	-7.959504661551221
-0.0001680497517378352	0.2840177307685093	-7.96131498493635
-0.0001680297517378352	0.2894450251845239	-7.959504661551219
-0.0001680097517378351	0.2948723196005384	-7.964935631706612
-0.0001679897517378352	0.2840177307685093	-7.959504661551219
-0.0001679697517378352	0.3039178102938779	-7.959504661551219
-0.0001679497517378351	0.3021087121552244	-7.954073691395826
-0.0001679297517378352	0.2876359270458524	-7.96131498493635
-0.0001679097517378351	0.294872319600522	-7.948642721240438
-0.0001678897517378352	0.2767813382138233	-7.955884014780957
-0.0001678697517378352	0.2966814177391918	-7.977607895402509
-0.0001678497517378351	0.3002996140165529	-7.948642721240432
-0.0001678297517378352	0.2840177307685093	-7.954073691395826
-0.0001678097517378351	0.2930632214618719	-7.952263368010712
-0.0001677897517378352	0.2984905158778814	-7.970366601862005
-0.0001677697517378352	0.2966814177392099	-7.957694338166088
-0.0001677497517378351	0.3039178102938927	-7.972176925247136
-0.0001677297517378352	0.3002996140165529	-7.972176925247136
-0.0001677097517378352	0.3093451047099023	-7.959504661551231
-0.0001676897517378351	0.2912541233231954	-7.964935631706612
-0.0001676697517378352	0.2966814177392099	-7.981228542172791
-0.0001676497517378351	0.3021087121552228	-7.961314984936354
-0.0001676297517378352	0.3002996140165529	-7.964935631706612
-0.0001676097517378352	0.2966814177392099	-7.972176925247136
-0.0001675897517378351	0.2966814177392099	-7.950453044625564
-0.0001675697517378352	0.2948723196005384	-7.975797572017398
-0.0001675497517378352	0.3075360065712275	-7.961314984936363
-0.0001675297517378351	0.2984905158778814	-7.959504661551219
-0.0001675097517378352	0.2930632214618669	-7.963125308321481
-0.0001674897517378351	0.2930632214618686	-7.973987248632254
-0.0001674697517378352	0.2948723196005384	-7.959504661551219
-0.0001674497517378352	0.2966814177392083	-7.972176925247124
-0.0001674297517378351	0.2912541233231954	-7.973987248632267
-0.0001674097517378352	0.2840177307685093	-7.957694338166088
-0.0001673897517378351	0.2894450251845271	-7.95769433816609
